Introduction to Data Handling
…
<img src="figure/tibble3-1.png" width="504" style="display: block; margin: auto;" />

:::

::: item

.font_smaller[

```r
mpg
```

```
  # A tibble: 234 x 11
     manufacturer model      displ  year   cyl trans      drv     cty   hwy fl    class  
     <chr>        <chr>      <dbl> <int> <int> <chr>      <chr> <int> <int> <chr> <chr>  
   1 audi         a4           1.8  1999     4 auto(l5)   f        18    29 p     compact
   2 audi         a4           1.8  1999     4 manual(m5) f        21    29 p     compact
   3 audi         a4           2    2008     4 manual(m6) f        20    31 p     compact
   4 audi         a4           2    2008     4 auto(av)   f        21    30 p     compact
   5 audi         a4           2.8  1999     6 auto(l5)   f        16    26 p     compact
   6 audi         a4           2.8  1999     6 manual(m5) f        18    26 p     compact
   7 audi         a4           3.1  2008     6 auto(av)   f        18    27 p     compact
   8 audi         a4 quattro   1.8  1999     4 manual(m5) 4        18    26 p     compact
   9 audi         a4 quattro   1.8  1999     4 auto(l5)   4        16    25 p     compact
  10 audi         a4 quattro   2    2008     4 manual(m6) 4        20    28 p     compact
  # … with 224 more rows
```
…
```r
pivot_longer(dat, cols = 2:5)
```
]
<br>

:::

::: item

<code class ='r hljs remark-code'>dat <span style="background-color:#ffff7f">%>%</span><br>&nbsp;&nbsp;<span style="background-color:#ffff7f">pivot_longer</span>(cols = LMA:Rdmass)</code>

```

  # A tibble: 10,192 x 4
     sp_code DE    name    value
     <chr>   <chr> <chr>   <dbl>
   1 ADEFAS  E     LMA    282.  
   2 ADEFAS  E     Nmass    1.17
   3 ADEFAS  E     Aarea   14.1 
   4 ADEFAS  E     Rdmass  NA   
   5 ARBMEN  E     LMA    155.  
   6 ARBMEN  E     Nmass    1.24
   7 ARBMEN  E     Aarea   11.2 
   8 ARBMEN  E     Rdmass  NA   
   9 ARCTOM  E     LMA    141.  
  10 ARCTOM  E     Nmass    1.03
  # … with 10,182 more rows
…
# Filter observations using `dplyr::filter`

::: grid

::: { .item50 border-right: dashed 3px black}

.code-box[

```r
dat
```

```
  # A tibble: 2,548 x 6
     sp_code DE      LMA Nmass Aarea Rdmass
     <chr>   <chr> <dbl> <dbl> <dbl>  <dbl>
   1 ADEFAS  E     282.   1.17 14.1      NA
   2 ARBMEN  E     155.   1.24 11.2      NA
   3 ARCTOM  E     141.   1.03 10.5      NA
   4 ARTCAL  D      95.5 NA    NA        NA
   5 BACPIL  E     107.   2.44 17.4      NA
   6 CEACUN  E     229.   1.80 22.9      NA
   7 CEAOLI  E     120.   2.13 17.8      NA
   8 CERBET  E     138.   2.41 24.5      NA
   9 CLELAS  D      74.1 NA    NA        NA
  10 DIROCC  D      56.2  2.58  7.76     NA
  # … with 2,538 more rows
```
…
:::

--

::: item

.code-box[

<code class ='r hljs remark-code'>dat2 <- dat %>% <span style="background-color:#ffff7f">filter</span>(!is.na(DE))<br>dat2</code>

```

  # A tibble: 1,606 x 6
     sp_code DE      LMA Nmass Aarea Rdmass
     <chr>   <chr> <dbl> <dbl> <dbl>  <dbl>
   1 ADEFAS  E     282.   1.17 14.1      NA
   2 ARBMEN  E     155.   1.24 11.2      NA
   3 ARCTOM  E     141.   1.03 10.5      NA
   4 ARTCAL  D      95.5 NA    NA        NA
   5 BACPIL  E     107.   2.44 17.4      NA
   6 CEACUN  E     229.   1.80 22.9      NA
   7 CEAOLI  E     120.   2.13 17.8      NA
   8 CERBET  E     138.   2.41 24.5      NA
   9 CLELAS  D      74.1 NA    NA        NA
  10 DIROCC  D      56.2  2.58  7.76     NA
  # … with 1,596 more rows
…
